[

  {
    "Id": 1,
    "CreatedOn": "12/12/2018",
    "ModifiedOn": "12/12/2018",
    "DeletedOn": null,
    "IsDeleted": false,
    "FirstName": "Steven",
    "Lastname": "Spielberg",
    "Oscars": 10,
    "ImageUrl": "https://i0.wp.com/auralcrave.com/wp-content/uploads/2018/04/Steven-Spielberg-Featured.jpeg?resize=810%2C515&ssl=1"
  },
  {
    "Id": 2,
    "CreatedOn": "12/12/2018",
    "ModifiedOn": "12/12/2018",
    "DeletedOn": null,
    "IsDeleted": false,
    "FirstName": "Martin",
    "Lastname": "Scorsese",
    "Oscars": 9,
    "ImageUrl": "https://static.independent.co.uk/s3fs-public/thumbnails/image/2015/11/27/14/martinscorsese.png?w968h681"
  },
  {
    "Id": 3,
    "CreatedOn": "12/12/2018",
    "ModifiedOn": "12/12/2018",
    "DeletedOn": null,
    "IsDeleted": false,
    "FirstName": "Ridley",
    "Lastname": "Scott",
    "Oscars": 8,
    "ImageUrl": "https://bafta.thirdlight.com/file/1389978759/46986049826/width=855/height=534/format=JPG/fit=stretch/crop=0x0+855x534/rev=3/t=421890/e=never/k=25f4c2f7/ridley%20scott.jpg"
  },
  {
    "Id": 4,
    "CreatedOn": "12/12/2018",
    "ModifiedOn": "12/12/2018",
    "DeletedOn": null,
    "IsDeleted": false,
    "FirstName": "John",
    "Lastname": "Woo",
    "Oscars": 7,
    "ImageUrl": "https://s.yimg.com/ny/api/res/1.2/23Q.F7UhGCLTu8dbRpG5Nw--~A/YXBwaWQ9aGlnaGxhbmRlcjtzbT0xO3c9ODAw/http://media.zenfs.com/en-SG/homerun/ybrand.cinema.com.my/5337273cdb90bdb78067d3e5b3be0d37"
  },
  {
    "Id": 5,
    "CreatedOn": "12/12/2018",
    "ModifiedOn": "12/12/2018",
    "DeletedOn": null,
    "IsDeleted": false,
    "FirstName": "Christopher",
    "Lastname": "Nolan",
    "Oscars": 6,
    "ImageUrl": "https://bafta.thirdlight.com/file/1389978759/46238757774/width=855/height=534/format=JPG/fit=stretch/crop=0x0+855x534/rev=3/t=420852/e=never/k=25ac9a25/Christopher%20Nolan%20thumb.jpg"
  },
  {
    "Id": 6,
    "CreatedOn": "12/12/2018",
    "ModifiedOn": "12/12/2018",
    "DeletedOn": null,
    "IsDeleted": false,
    "FirstName": "Peter",
    "Lastname": "Jackson",
    "Oscars": 5,
    "ImageUrl": "https://static.ffx.io/images/$zoom_0.2385,$multiply_1,$ratio_1.777778,$width_1059,$x_0,$y_292/t_crop_custom/w_800/q_86,f_auto/bbbdcb26cbb504fa2a0039230aaad81c827c3ed5"
  },
  {
    "Id": 7,
    "CreatedOn": "12/12/2018",
    "ModifiedOn": "12/12/2018",
    "DeletedOn": null,
    "IsDeleted": false,
    "FirstName": "James",
    "Lastname": "Cameron",
    "Oscars": 4,
    "ImageUrl": "https://cdn.ciudad.com.ar/sites/default/files/nota/2018/06/07/james.jpg"
  },
  {
    "Id": 8,
    "CreatedOn": "12/12/2018",
    "ModifiedOn": "12/12/2018",
    "DeletedOn": null,
    "IsDeleted": false,
    "FirstName": "Luc",
    "Lastname": "Besson",
    "Oscars": 0,
    "ImageUrl": "http://www.stumpedmagazine.com/wp-content/uploads/2012/02/LucBesson.jpg"
  },
  {
    "Id": 9,
    "CreatedOn": "12/12/2018",
    "ModifiedOn": "12/12/2018",
    "DeletedOn": null,
    "IsDeleted": false,
    "FirstName": "David",
    "Lastname": "Lean",
    "Oscars": 0,
    "ImageUrl": "https://shepherdexpress.com/downloads/38901/download/AEGateway_DavidLeane.jpg?cb=1b79eb1094535799874e2bfcc395994b&w=640"
  },
  {
    "Id": 10,
    "CreatedOn": "12/12/2018",
    "ModifiedOn": "12/12/2018",
    "DeletedOn": null,
    "IsDeleted": false,
    "FirstName": "Joel",
    "Lastname": "Coen",
    "Oscars": 0,
    "ImageUrl": "https://brokeassstuart-9uzlt3u.netdna-ssl.com/wp-content/pictsnShit/2016/11/8-Joel-Cohenlarge.1399045130.jpg"
  }

]
